1460637847.000000, 1460637847.000000, 1460637847.000000
32.000000, 32.000000, 32.000000
36,-25,45
36,-25,45
36,-25,45
36,-25,45
36,-24,45
36,-25,45
36,-24,44
36,-25,44
35,-25,44
35,-25,44
35,-25,45
36,-25,45
36,-25,45
35,-25,45
35,-25,44
36,-25,44
35,-25,44
36,-25,44
36,-25,45
35,-25,44
36,-25,45
36,-25,45
35,-25,44
36,-25,44
35,-25,44
36,-25,45
36,-25,45
36,-26,45
36,-25,45
35,-25,44
36,-25,45
36,-26,44
35,-25,44
36,-25,44
36,-25,44
36,-25,44
36,-25,45
35,-25,45
36,-25,45
35,-25,45
35,-25,45
36,-25,45
35,-25,44
36,-26,44
36,-25,45
35,-25,45
35,-25,45
35,-25,45
35,-26,44
36,-26,45
36,-25,45
35,-25,45
35,-24,45
35,-25,44
34,-25,44
33,-25,44
35,-26,44
35,-26,46
36,-26,46
37,-25,46
36,-25,45
35,-25,46
35,-25,44
34,-25,44
35,-25,44
35,-25,44
35,-25,45
35,-26,44
35,-25,45
35,-25,45
35,-25,45
35,-25,45
34,-25,45
35,-25,45
35,-26,45
34,-25,45
35,-25,45
35,-25,45
34,-25,45
35,-25,46
34,-25,45
34,-25,45
35,-25,45
35,-25,45
35,-25,45
35,-25,45
35,-25,44
35,-25,45
35,-25,45
35,-25,45
35,-25,45
35,-25,45
35,-25,45
35,-25,45
36,-25,45
35,-25,45
35,-25,45
35,-25,45
35,-25,45
35,-25,45
35,-25,44
35,-25,45
35,-25,45
35,-25,45
35,-25,45
36,-25,45
35,-25,45
35,-26,44
35,-25,45
35,-25,44
36,-25,45
35,-25,45
35,-25,44
35,-26,44
35,-26,44
35,-25,44
35,-25,44
36,-26,45
36,-25,45
35,-25,45
36,-26,45
35,-26,44
35,-26,44
35,-25,44
35,-26,44
36,-26,44
35,-26,44
35,-26,44
36,-26,44
35,-26,44
36,-26,45
36,-25,45
35,-25,44
35,-26,44
36,-26,44
35,-26,44
36,-25,44
36,-25,45
36,-25,44
36,-26,44
35,-26,44
35,-26,44
36,-27,44
35,-27,44
35,-26,44
35,-26,44
36,-25,45
35,-25,45
34,-25,45
36,-26,45
36,-26,45
35,-26,44
36,-26,45
35,-25,44
36,-25,44
35,-25,45
35,-24,45
35,-25,45
36,-24,45
35,-24,45
35,-24,45
35,-25,45
35,-25,45
35,-25,45
35,-25,44
36,-25,45
35,-25,45
35,-25,45
36,-25,45
36,-25,44
36,-25,44
35,-25,44
36,-26,44
36,-25,44
35,-25,44
36,-25,44
36,-26,44
35,-26,44
36,-25,45
36,-26,45
36,-26,45
36,-25,45
36,-25,45
35,-25,44
36,-24,46
36,-24,46
35,-24,46
36,-23,47
37,-22,48
36,-21,48
35,-21,50
35,-19,51
35,-20,50
29,-21,48
31,-22,47
34,-25,41
36,-25,43
35,-28,38
33,-29,38
40,-28,41
48,-28,42
50,-27,43
44,-30,25
45,-33,22
49,-35,17
50,-38,13
48,-40,11
51,-40,12
53,-41,12
49,-41,9
47,-43,6
48,-44,-2
42,-46,-11
48,-45,-15
46,-49,-44
52,-45,-51
65,-31,-36
57,58,127
21,-115,-32
30,-38,10
46,-55,24
37,-45,9
56,-40,16
54,-36,13
55,-37,13
50,-38,10
49,-39,11
50,-36,16
46,-35,14
50,-34,15
48,-32,14
47,-31,14
50,-33,15
52,-33,18
50,-33,16
51,-31,17
53,-28,20
44,-33,9
46,-36,9
50,-33,15
47,-32,11
49,-32,5
50,-31,7
53,-28,18
56,-27,19
52,-28,14
53,-29,9
56,-30,11
57,-27,14
59,-25,14
52,-26,16
54,-28,13
48,-30,14
45,-27,19
46,-29,26
53,-26,28
48,-26,27
38,-21,28
54,-17,32
60,-16,35
43,-15,36
49,-9,41
41,-7,37
32,-6,35
51,5,49
44,2,47
54,8,53
47,14,53
45,13,49
56,11,52
54,12,53
45,11,49
49,10,50
43,8,48
34,6,40
33,6,39
20,9,37
22,8,35
38,11,39
37,12,41
38,13,42
38,17,46
43,19,47
43,19,43
43,18,43
43,22,47
42,20,44
45,23,43
51,27,48
41,25,44
40,27,42
42,28,43
41,27,39
39,27,40
44,30,44
41,28,41
40,26,38
42,27,37
42,27,37
42,27,38
44,26,38
44,26,40
44,25,40
44,25,39
44,24,37
46,24,36
46,24,37
45,24,36
48,24,37
47,25,36
46,24,34
46,24,34
49,23,35
47,23,35
47,22,35
49,23,35
47,23,34
46,23,34
48,23,34
49,22,34
47,22,34
47,23,35
49,23,34
48,23,33
47,23,33
48,23,33
48,23,33
47,24,32
47,24,32
48,25,33
47,24,33
48,25,33
48,25,32
48,25,33
47,26,32
46,26,32
47,26,32
48,27,32
47,26,32
46,27,32
46,28,32
46,28,33
46,27,32
46,28,32
46,28,32
46,28,32
47,27,32
47,27,32
46,27,33
45,28,32
45,27,33
46,27,33
46,28,32
45,28,32
45,29,33
46,29,33
46,27,32
46,27,33
46,28,33
46,29,33
46,29,32
45,29,31
45,29,32
46,29,33
45,29,33
44,30,32
44,29,33
45,29,33
46,30,33
45,29,33
44,29,32
45,29,33
45,29,32
45,29,33
45,29,33
45,29,33
45,29,33
44,29,33
44,29,33
45,29,33
44,29,33
44,29,33
45,28,33
45,29,33
44,29,33
46,29,33
45,29,33
44,28,33
45,28,33
45,28,33
45,28,33
45,27,33
45,27,34
45,27,33
46,26,33
47,27,33
46,27,33
46,27,33
46,27,33
46,26,33
47,26,32
48,27,32
47,27,32
47,27,32
47,26,31
48,25,32
48,25,32
47,25,33
46,26,32
47,26,32
49,24,32
49,24,32
47,24,32
48,25,32
49,25,31
48,25,32
48,25,32
47,25,32
48,25,32
48,25,33
48,25,32
48,24,32
48,24,32
48,24,32
48,24,32
47,24,33
48,24,33
49,24,33
49,24,34
49,24,34
46,24,33
46,23,32
48,24,35
47,24,35
46,23,34
46,23,34
45,23,35
46,22,36
45,23,36
45,24,36
45,24,36
44,23,36
46,24,36
45,24,36
44,23,36
45,23,37
45,23,37
45,24,37
45,24,37
44,25,36
44,24,37
44,24,37
44,24,37
45,24,37
45,24,37
45,24,37
44,25,37
44,24,36
45,25,37
45,25,36
44,24,36
44,25,36
45,25,36
44,24,36
45,24,36
45,24,36
45,25,36
45,25,36
45,25,35
45,25,35
46,25,35
46,25,35
45,24,35
45,25,35
46,26,34
46,26,34
46,27,34
45,27,33
46,26,33
47,26,34
47,26,34
46,26,33
46,26,33
47,26,33
47,26,33
46,27,33
47,28,33
47,28,33
46,28,32
46,27,32
47,28,32
46,28,32
45,29,32
46,29,32
45,29,31
45,29,31
46,29,31
46,29,32
46,29,32
45,29,32
45,30,32
45,30,32
45,30,32
44,30,32
45,30,32
45,30,32
45,31,33
44,31,32
44,31,32
44,31,32
43,31,32
44,32,32
43,32,32
43,31,32
44,31,32
44,33,33
43,33,32
42,32,32
42,33,31
42,34,31
43,33,32
43,33,32
43,34,32
42,34,31
42,34,31
42,33,32
42,34,32
43,34,32
43,34,32
43,34,31
44,33,31
44,33,32
42,33,31
42,33,32
42,33,32
44,33,32
44,32,32
44,32,32
45,30,31
44,30,32
44,30,32
45,30,32
45,31,31
45,29,31
47,28,32
47,28,32
47,28,31
47,29,32
46,29,31
45,29,31
46,27,32
46,27,31
48,27,31
47,27,31
47,27,31
47,27,31
47,26,31
49,25,31
48,25,31
47,27,32
48,27,32
47,27,32
47,26,31
47,25,32
47,24,31
47,24,31
48,24,32
47,25,33
48,26,33
47,28,32
47,27,32
46,26,32
46,26,33
47,27,32
47,26,31
47,25,33
48,25,33
47,26,32
46,26,32
46,27,32
47,27,32
47,28,32
45,29,32
47,28,32
46,28,32
45,30,32
46,30,32
46,30,31
44,31,31
44,32,31
45,32,31
44,32,31
43,32,31
44,31,32
44,30,32
44,30,32
44,30,33
44,31,32
45,31,32
44,30,32
44,30,32
45,30,32
45,30,32
45,30,32
45,31,32
44,30,32
45,30,32
45,30,32
45,30,31
45,30,31
45,30,31
45,30,31
45,30,32
45,30,32
45,30,32
45,30,31
45,29,32
45,30,32
45,30,31
46,30,32
46,29,32
45,29,32
45,29,32
46,29,32
45,28,32
45,28,32
47,28,33
47,28,32
45,27,31
48,26,33
47,26,33
47,27,32
48,26,32
47,26,33
46,26,33
47,26,32
47,26,32
47,26,32
47,25,32
47,25,33
48,25,32
48,25,32
47,25,33
47,25,33
48,25,34
47,27,36
46,27,37
47,28,35
50,30,36
49,30,35
49,30,35
47,27,35
45,24,34
45,22,33
47,19,33
47,19,32
48,18,31
49,18,30
51,18,33
50,18,33
50,18,34
50,19,36
49,18,35
48,19,36
47,18,36
49,18,37
50,21,39
50,21,40
46,19,37
47,18,37
45,16,36
46,15,35
47,13,36
47,11,36
49,13,37
51,11,39
49,11,36
48,10,36
50,8,37
49,8,37
48,9,36
48,7,38
47,7,38
47,7,38
48,6,40
46,7,40
46,6,37
43,5,36
46,6,37
49,7,38
49,8,38
47,6,39
50,5,41
47,5,38
47,5,39
49,6,40
48,6,40
47,5,41
47,6,40
49,5,40
49,6,39
48,6,39
48,6,38
48,5,38
50,6,39
49,5,38
49,6,37
50,6,38
50,6,39
49,6,38
50,7,39
49,7,38
49,7,39
49,7,39
49,8,39
49,7,38
49,7,39
49,7,38
51,7,39
50,7,38
49,7,38
48,7,39
50,7,38
49,5,37
46,6,37
49,6,37
52,5,37
50,5,37
48,6,36
51,5,35
51,5,38
48,6,36
49,5,36
50,5,35
52,5,35
52,5,35
52,5,34
52,6,35
50,6,35
51,5,35
52,5,35
51,5,35
51,6,35
51,6,35
51,5,35
51,5,35
51,6,35
51,6,35
52,5,35
51,5,35
51,5,35
51,5,35
51,5,35
53,5,35
53,5,34
52,4,33
52,4,34
52,5,34
52,4,35
52,4,35
52,4,35
53,4,34
53,3,34
53,3,35
51,3,34
52,2,33
53,2,33
52,2,33
53,2,34
52,4,34
52,4,34
52,3,35
51,2,33
51,2,33
52,3,33
51,2,33
53,1,34
52,2,33
52,1,34
53,2,35
54,2,35
53,2,35
53,3,36
53,3,35
53,3,35
53,4,35
51,2,35
52,2,35
53,3,34
52,3,34
52,3,33
51,3,33
52,1,33
52,2,34
52,3,34
52,1,34
52,1,34
52,1,35
52,3,35
51,3,34
51,1,34
52,1,35
53,1,35
53,1,35
53,3,35
51,3,34
51,2,33
51,1,33
52,1,33
53,1,34
52,2,33
52,1,33
53,1,34
54,3,34
53,4,33
52,2,33
52,2,34
53,2,34
53,3,35
53,3,35
52,3,35
53,4,35
53,4,34
52,4,34
52,4,34
52,4,34
52,4,33
53,4,35
52,5,35
50,5,35
51,4,34
50,3,34
51,5,34
51,5,33
51,5,32
52,4,33
52,3,32
52,3,33
53,4,33
53,4,34
52,4,34
52,4,34
53,4,35
53,4,35
53,5,35
53,5,33
52,5,32
53,4,32
53,3,31
53,3,32
53,4,32
52,4,31
53,4,31
54,3,31
54,2,31
54,1,31
54,2,31
56,2,32
55,2,32
55,2,32
55,3,32
54,3,32
55,3,32
55,3,32
54,3,32
54,3,31
53,2,31
53,2,31
54,2,31
54,2,31
53,2,31
54,1,31
54,2,31
54,1,30
55,1,32
56,2,34
55,3,33
52,4,32
52,3,32
52,2,32
53,2,32
54,1,32
55,0,33
55,1,33
54,2,33
53,2,34
52,2,33
51,3,33
52,2,33
51,1,33
51,1,33
53,1,35
53,1,35
53,2,35
52,3,34
51,3,34
51,2,34
51,2,34
51,1,34
52,1,35
51,0,34
52,1,34
52,1,34
52,2,34
52,2,34
52,2,34
52,2,34
52,2,34
52,3,35
52,3,35
52,3,35
52,2,34
52,2,34
52,2,33
52,1,33
53,2,33
53,1,32
53,2,33
53,2,33
53,1,33
54,1,33
53,2,33
53,2,33
54,2,33
54,2,33
54,2,33
53,2,33
53,1,32
53,-1,32
53,-1,32
54,-1,32
55,-1,32
54,0,33
54,0,33
54,0,32
54,-1,33
54,-1,33
53,-1,33
53,-1,33
52,-1,33
52,-1,33
53,-1,33
52,-1,33
52,-1,33
52,-1,33
52,-1,34
52,-1,34
52,-1,34
52,-1,34
52,-1,34
52,-1,34
52,-1,33
52,0,33
51,-1,33
52,-1,33
53,-1,34
53,0,34
53,-1,35
54,0,35
52,0,34
52,-1,34
52,-2,33
53,-1,34
54,0,34
53,0,34
53,0,35
52,0,35
51,-1,34
52,0,34
52,0,34
52,0,34
52,0,34
52,0,34
52,0,34
52,0,34
52,0,35
52,0,35
52,0,35
52,0,35
51,0,34
51,0,34
52,-1,35
52,-1,34
52,-1,34
53,-2,35
52,-1,34
52,-1,35
53,-1,35
52,-1,35
52,0,35
52,-1,34
52,-1,34
52,-2,34
53,-1,35
53,-1,35
52,-1,35
52,-1,35
51,-1,35
51,-1,35
51,-1,35
52,-1,36
51,-1,35
51,0,36
51,0,36
51,0,36
51,0,36
51,1,36
51,0,37
50,1,38
49,1,36
50,1,36
50,3,38
49,3,38
49,3,40
48,4,39
48,4,39
48,5,40
48,5,39
48,5,39
47,5,39
45,6,38
47,6,39
47,6,40
46,7,39
47,8,40
48,7,41
48,8,41
47,10,40
47,10,40
46,11,40
45,11,39
46,11,40
46,10,40
46,11,39
47,11,40
46,12,41
46,12,40
46,12,40
46,13,41
46,13,41
45,14,40
47,16,40
45,15,40
46,15,40
45,16,39
46,17,40
47,18,41
46,17,40
44,16,40
46,16,41
44,17,40
44,18,40
45,18,41
43,18,40
43,17,40
46,18,42
44,17,40
44,16,41
44,17,42
45,18,42
44,19,41
44,19,40
44,19,39
43,19,39
42,18,37
42,18,36
44,18,39
46,20,42
46,20,43
45,21,43
45,21,42
43,22,41
42,22,40
42,22,40
41,22,40
42,23,40
42,23,40
42,23,40
41,23,39
41,23,39
42,24,40
42,25,40
42,24,40
42,26,40
41,25,39
41,27,39
40,28,38
40,28,38
41,29,39
40,28,38
42,28,40
41,28,40
40,28,38
40,27,38
42,27,39
43,29,40
42,29,38
39,28,37
41,29,38
40,29,37
40,29,36
42,30,39
43,32,39
41,31,37
41,31,36
41,32,37
39,32,36
38,32,35
40,33,36
42,34,37
39,34,36
38,33,35
39,34,36
40,35,36
40,35,35
38,35,34
38,35,35
39,35,35
39,35,35
38,35,35
38,34,35
39,34,35
40,35,36
40,34,35
39,34,35
40,34,36
40,34,35
38,33,34
39,33,35
41,34,35
41,34,35
40,34,34
39,35,35
39,34,34
40,35,33
41,34,34
41,33,35
41,32,35
42,33,36
42,33,36
41,33,34
40,34,34
41,34,33
41,35,31
40,35,31
41,34,34
42,34,34
42,34,34
41,35,35
38,36,33
39,36,31
41,36,31
40,35,32
40,35,33
40,36,33
40,37,33
39,36,32
39,36,32
40,36,32
40,36,31
39,37,31
39,37,31
41,37,32
40,37,32
40,36,32
40,36,33
41,36,32
41,37,32
40,35,31
40,34,32
41,34,33
41,35,32
41,35,31
41,34,33
41,34,32
43,33,32
43,34,32
42,34,32
43,34,32
42,33,32
43,33,31
43,32,31
44,32,32
44,33,31
45,32,31
45,31,31
45,32,32
44,32,32
43,33,31
45,32,30
46,32,31
46,31,32
45,31,31
43,31,32
46,32,31
45,32,30
45,31,31
45,31,32
45,33,32
43,34,31
42,32,32
44,31,33
45,30,33
42,30,33
41,30,33
42,29,35
43,30,36
42,30,35
41,30,33
41,30,34
42,30,35
44,30,35
44,30,33
44,30,34
43,32,34
43,31,33
42,30,34
42,30,36
43,30,36
43,27,37
43,26,37
45,26,37
45,25,36
46,23,35
47,23,36
47,23,35
46,23,35
46,23,35
47,23,35
46,23,35
47,24,35
47,24,34
46,23,35
47,22,33
48,23,33
47,24,34
47,23,33
47,24,32
48,24,31
50,25,32
48,26,31
48,26,31
48,26,31
48,26,31
48,27,31
49,27,31
49,27,30
48,27,30
47,27,30
48,26,30
47,27,30
48,28,30
48,28,30
49,27,30
49,28,31
47,27,30
48,27,30
49,26,31
47,26,31
47,27,30
48,27,31
48,26,31
48,26,31
48,27,31
49,26,31
47,25,30
47,24,31
48,25,32
49,25,32
48,25,32
47,25,31
48,25,31
48,25,31
48,24,31
48,24,31
48,24,30
50,24,31
49,23,32
48,23,32
49,23,32
49,23,32
49,23,31
49,23,31
49,23,31
50,23,31
49,23,30
49,23,31
50,23,31
49,23,31
49,23,31
49,23,31
49,23,31
50,24,31
48,24,31
48,24,31
49,23,32
50,23,32
49,24,32
48,24,32
48,25,31
48,26,30
48,26,29
48,26,30
48,26,31
48,26,31
48,26,31
47,26,31
47,26,32
47,27,31
47,28,30
48,28,30
48,28,30
48,28,29
47,28,30
48,28,30
49,27,31
48,27,31
46,27,31
47,28,30
48,27,31
48,27,31
48,27,31
47,27,30
47,26,31
47,27,31
48,26,31
49,25,31
49,23,32
48,24,32
48,25,31
49,25,31
48,25,30
48,25,30
48,24,30
49,24,31
49,24,30
48,24,30
49,23,30
50,23,31
50,23,30
51,23,30
50,23,29
49,24,29
49,24,29
51,24,29
51,24,29
50,24,28
50,24,28
51,23,29
51,24,29
51,24,29
50,25,28
49,25,28
50,25,28
51,25,29
51,26,28
51,26,27
50,26,28
50,26,28
50,26,28
50,26,27
51,26,27
50,27,27
50,27,27
50,27,27
50,27,27
50,26,27
50,26,27
50,27,27
49,27,27
49,27,27
49,27,27
50,27,26
50,26,27
50,26,27
50,27,27
50,27,27
50,28,26
50,27,26
50,26,27
50,27,28
50,27,28
50,27,27
49,27,27
49,27,26
50,27,27
50,27,27
49,27,27
49,27,28
49,27,28
49,27,28
49,27,27
50,27,28
49,27,28
49,27,28
50,28,28
49,28,28
49,27,28
48,28,28
49,29,29
48,28,29
48,29,29
48,28,29
48,28,29
47,28,29
47,28,29
47,29,29
46,30,29
47,32,29
47,31,29
45,31,30
46,32,30
45,32,29
44,32,29
44,32,29
45,33,30
44,33,30
44,33,29
45,33,29
44,33,29
44,33,29
45,33,30
44,33,29
44,33,29
45,32,29
45,32,30
45,32,30
45,33,30
45,33,30
45,32,29
45,32,29
46,32,29
46,32,29
45,32,30
45,32,31
45,32,31
46,31,30
46,31,30
45,31,30
45,31,30
45,31,30
45,30,30
47,30,30
46,29,30
46,29,30
47,29,30
47,29,30
47,29,30
47,29,30
47,28,30
47,28,30
48,27,30
47,28,29
47,28,29
48,27,30
49,27,29
49,27,30
48,27,29
49,27,29
49,27,29
49,27,29
49,27,28
49,26,28
49,25,29
50,25,30
50,26,29
49,25,29
49,25,30
49,26,29
49,26,29
48,25,28
49,25,29
50,25,29
51,23,31
51,23,31
51,24,30
49,24,30
48,24,29
49,24,29
51,23,30
50,23,30
50,23,29
50,24,30
50,23,30
51,22,30
50,23,30
50,23,30
50,23,30
50,22,30
50,22,30
51,21,30
50,22,29
50,22,29
51,22,29
51,22,29
51,22,29
51,21,30
51,21,30
51,22,29
51,22,29
50,22,29
52,22,30
51,22,29
51,22,29
51,22,29
51,23,29
51,22,29
51,22,29
50,22,29
51,23,29
51,22,29
51,22,29
51,21,29
52,22,29
51,22,28
51,22,28
52,22,28
52,22,28
52,22,28
51,22,28
51,22,29
52,22,29
52,21,28
51,22,28
51,22,28
52,21,28
51,22,28
51,22,28
52,21,28
52,21,28
51,22,28
51,22,28
52,21,29
51,22,29
51,22,28
51,22,29
51,22,29
51,22,28
51,21,28
51,21,29
51,21,29
51,22,29
51,22,29
50,22,29
51,22,29
52,21,29
53,21,29
53,22,29
51,24,30
49,24,31
51,25,30
50,22,29
49,22,30
46,23,31
46,24,31
47,24,31
48,23,30
51,23,31
51,25,31
48,26,31
48,25,31
49,25,32
47,25,32
47,24,31
48,24,32
47,24,32
48,23,32
48,24,32
48,24,32
49,23,32
50,23,32
48,23,32
49,22,33
49,23,33
47,23,32
47,22,32
48,21,33
49,22,34
48,21,32
49,21,31
51,22,32
48,21,32
48,20,31
54,19,31
54,20,32
48,20,31
49,19,30
51,19,30
52,19,32
51,19,31
50,21,31
50,22,31
51,21,30
51,20,30
52,20,29
51,19,30
50,19,30
51,20,30
52,20,30
52,20,30
51,19,30
52,19,31
52,20,30
51,21,29
51,21,28
51,20,28
51,19,29
52,19,29
53,20,29
52,20,28
52,20,28
52,20,28
52,20,28
53,20,28
53,20,28
52,20,27
51,21,27
52,21,27
53,22,27
53,22,26
53,21,26
53,20,26
53,20,26
53,21,26
54,21,26
52,22,26
52,22,25
53,22,25
54,22,25
54,21,24
53,21,24
53,22,24
55,22,25
54,22,25
52,23,25
52,23,25
53,23,24
53,23,25
53,23,24
52,23,24
52,24,24
53,24,24
53,24,24
52,24,24
52,24,24
53,25,25
53,25,24
52,24,24
53,25,24
53,25,24
52,25,24
51,25,24
53,25,24
53,25,24
52,24,24
52,24,25
53,25,25
52,25,25
52,25,25
52,24,24
52,24,24
52,24,25
52,24,25
52,24,25
53,24,25
51,24,25
52,24,25
52,25,25
52,25,25
52,24,25
53,24,26
51,24,25
51,24,25
53,24,25
53,24,25
51,25,25
52,24,24
53,23,26
51,24,26
51,24,26
52,24,26
52,24,26
52,24,26
52,24,26
52,24,26
50,25,26
50,25,26
52,24,26
52,24,27
51,24,26
52,24,26
52,24,26
51,24,26
51,24,26
51,25,27
51,25,27
51,24,27
50,24,27
51,24,26
51,24,27
51,24,26
51,25,27
51,24,26
51,24,27
51,24,27
51,24,26
51,24,26
52,24,27
51,25,26
51,24,26
52,23,27
52,24,27
51,24,25
52,24,26
52,23,27
51,24,26
52,24,27
52,24,26
51,24,26
52,23,26
52,23,26
51,24,26
52,24,27
52,24,27
51,24,27
51,24,27
52,24,27
52,24,26
52,24,27
53,24,27
50,24,28
51,23,26
52,23,26
50,25,27
49,25,28
51,25,27
52,24,27
50,23,28
50,24,28
51,23,27
53,23,28
52,23,28
50,23,27
51,22,27
52,22,28
52,21,28
52,21,28
52,21,28
52,21,28
52,21,28
51,21,28
51,21,28
53,20,28
53,20,28
52,20,28
52,20,28
52,20,28
52,20,28
52,20,28
52,20,28
51,21,28
52,21,28
52,20,28
53,21,28
53,20,28
52,20,28
51,20,28
53,20,28
51,21,28
51,21,27
52,21,28
52,21,28
52,21,28
52,21,28
52,21,28
52,22,28
52,21,28
52,21,28
52,21,28
51,21,27
51,21,28
52,21,28
52,21,28
52,21,28
51,22,28
51,22,27
52,21,28
52,21,28
51,21,28
51,21,28
52,22,28
51,22,28
51,22,28
52,22,28
52,22,28
51,22,28
52,22,28
51,22,28
51,22,28
52,22,28
52,22,28
51,22,28
51,22,28
52,22,28
51,22,28
51,22,28
51,22,28
52,22,28
52,22,28
51,22,28
51,23,27
52,22,27
53,22,27
51,21,28
52,21,28
53,22,28
52,21,28
51,21,28
52,22,28
52,22,29
52,22,28
51,22,27
52,22,28
52,21,28
51,22,28
52,22,28
52,22,28
51,22,28
51,22,28
51,22,28
50,22,28
51,22,29
52,22,28
52,23,28
50,23,28
51,23,28
51,23,28
51,23,29
51,23,28
51,23,28
51,23,29
50,23,28
51,23,28
51,23,28
51,24,28
51,23,28
51,24,28
51,23,28
51,23,28
51,24,28
50,24,27
51,24,27
51,24,28
51,24,28
51,24,27
50,23,27
52,24,29
52,24,28
50,24,28
50,24,28
51,23,28
52,23,28
51,24,28
51,24,27
52,22,28
52,22,28
51,23,28
51,23,28
51,23,28
50,23,28
51,22,28
52,23,29
51,22,29
51,22,28
51,22,28
51,22,28
51,22,28
50,22,28
52,22,29
52,22,29
51,22,28
51,22,28
51,22,28
51,23,28
51,23,28
52,22,28
51,22,28
52,22,28
52,22,28
51,22,28
51,22,28
52,22,28
51,23,28
51,22,28
52,22,28
51,23,28
51,23,28
51,23,28
52,23,28
51,23,28
51,23,28
51,23,28
51,23,28
51,22,28
51,23,28
51,23,28
51,23,28
52,23,28
50,23,28
50,23,28
52,23,29
51,23,28
51,22,29
51,22,28
51,23,29
50,23,28
50,22,28
51,22,28
51,22,29
51,23,29
51,23,28
50,23,28
51,23,29
52,22,28
51,22,29
50,22,29
52,22,29
51,23,28
51,23,28
51,23,28
51,23,28
51,22,29
51,22,29
51,22,28
51,23,28
50,23,28
51,23,29
51,23,28
51,23,28
51,23,28
51,23,28
50,23,28
51,22,29
51,22,28
51,23,29
51,22,29
51,22,28
51,22,28
51,22,28
51,22,28
51,23,28
51,23,28
51,23,28
51,22,29
52,21,28
51,21,27
51,21,27
51,22,28
52,23,28
51,23,28
51,23,28
52,22,29
52,22,28
50,22,27
52,21,28
53,22,29
51,22,28
50,22,28
51,21,28
52,21,28
53,22,28
51,23,27
50,22,26
52,21,27
53,22,27
52,22,28
52,22,28
51,23,28
51,22,28
51,21,28
52,21,27
52,21,27
52,22,28
52,23,28
52,23,27
53,23,27
52,23,28
51,24,27
51,24,27
51,24,27
51,24,27
51,24,27
51,24,27
50,24,27
51,24,28
51,24,27
50,24,27
50,25,28
51,24,27
51,24,27
50,24,27
51,24,28
52,24,27
50,24,27
50,24,27
51,24,27
51,24,27
51,24,27
52,25,27
51,24,27
50,24,27
51,24,27
52,23,27
52,23,28
51,24,27
51,24,27
51,23,27
52,23,28
52,23,28
51,23,28
51,23,27
52,23,27
52,23,28
51,23,27
52,23,27
52,23,28
51,22,28
51,22,28
52,23,28
51,22,28
51,22,28
52,22,28
52,22,28
51,22,28
51,22,27
52,22,28
52,22,28
51,22,28
52,22,28
51,22,28
51,23,28
51,23,28
52,22,28
51,22,28
51,22,28
51,23,28
51,22,28
52,23,28
51,23,28
52,22,29
51,23,28
51,23,28
51,23,28
51,23,28
51,23,28
51,23,28
51,22,28
51,22,29
52,22,29
51,22,28
50,22,29
51,22,29
51,22,29
51,22,29
51,22,29
51,21,29
51,21,29
51,21,29
52,21,29
51,21,29
51,21,28
51,22,29
51,21,29
51,21,29
51,21,29
51,21,29
51,21,29
51,22,29
51,21,29
51,21,29
52,21,29
51,21,29
51,21,29
51,21,29
51,22,29
51,22,29
51,21,29
51,22,29
51,22,29
51,21,29
52,21,29
51,22,29
51,22,29
51,22,28
51,22,29
51,22,29
51,22,29
51,22,30
50,23,29
51,23,29
51,22,29
50,23,29
50,23,29
51,22,29
50,22,29
50,22,29
52,22,29
50,23,29
51,23,29
50,23,28
50,23,29
51,23,28
51,23,28
50,23,29
51,23,29
51,23,29
51,23,29
50,23,29
50,23,28
51,23,28
51,23,28
51,23,28
51,23,28
52,23,28
51,23,28
51,24,28
51,24,28
51,23,28
50,23,28
50,23,28
52,23,28
51,23,28
50,23,28
51,23,28
51,23,28
51,23,28
51,23,28
51,23,28
51,23,28
51,23,28
51,23,28
51,24,28
51,23,28
51,23,28
52,23,28
51,23,28
50,23,28
51,23,28
52,23,28
51,23,28
50,22,28
51,22,28
52,23,29
50,22,28
50,22,28
52,22,28
51,23,28
50,23,28
52,23,28
52,22,28
50,22,29
51,22,29
52,21,29
51,21,29
51,22,29
51,22,29
50,23,29
51,22,28
51,22,29
51,23,29
50,23,29
51,23,29
50,23,29
50,23,29
50,23,29
50,23,29
50,23,29
50,23,29
50,23,29
50,24,29
52,24,28
51,24,28
50,24,29
50,24,29
49,24,28
52,25,28
52,24,28
50,23,27
50,24,28
51,24,28
49,25,28
50,24,28
51,24,28
52,23,28
51,24,28
51,25,28
50,25,28
50,26,27
50,26,26
51,24,27
51,23,28
52,23,29
52,23,29
51,24,28
50,24,28
51,25,27
51,25,27
51,25,28
50,25,28
50,24,28
49,24,26
50,23,27
54,23,30
51,24,30
48,25,29
48,27,27
49,25,26
50,24,27
51,23,27
51,23,28
51,23,29
51,23,30
51,22,28
51,23,28
51,24,28
51,24,28
50,23,29
51,23,29
51,23,29
50,23,28
51,22,29
51,22,29
50,22,28
51,21,29
52,21,29
51,21,29
50,22,28
52,21,29
51,21,29
51,21,29
52,21,28
52,21,29
52,20,28
52,20,29
53,20,29
51,20,29
51,20,29
52,20,29
52,20,29
51,20,28
52,19,28
53,20,29
52,20,29
52,20,29
52,20,29
52,20,29
52,20,29
51,20,29
51,20,29
51,20,29
51,20,29
51,20,29
51,20,29
52,20,29
52,20,29
51,21,28
52,21,28
52,21,28
52,21,27
52,21,27
52,22,27
52,21,27
52,21,27
53,21,27
52,21,27
53,21,27
53,22,26
52,22,25
52,22,26
53,21,26
53,22,26
53,22,26
53,23,26
52,23,25
53,24,24
52,24,24
53,24,25
53,24,25
52,23,25
52,23,25
52,24,25
53,23,25
52,23,25
52,24,25
52,24,25
52,24,25
52,25,25
52,25,25
52,24,26
52,24,25
52,24,26
52,24,25
51,24,26
52,25,26
51,25,26
51,24,26
51,24,26
52,24,26
52,24,26
51,24,26
52,23,27
52,24,27
52,25,26
51,25,26
51,24,26
51,24,26
51,24,26
51,24,27
52,23,27
51,23,28
51,23,27
51,23,28
51,23,28
53,23,28
52,23,28
48,23,27
52,23,28
53,22,28
51,22,28
51,23,28
52,22,28
52,22,28
51,22,28
52,22,28
52,22,29
50,23,28
51,22,28
51,23,28
51,23,28
52,22,28
52,23,28
51,23,28
51,22,28
52,22,28
51,23,28
51,22,28
51,22,28
51,23,28
51,22,27
52,22,28
52,23,28
51,22,27
51,22,28
52,22,28
52,22,27
52,23,28
52,22,28
51,22,28
51,23,27
52,23,28
52,23,28
51,23,28
51,22,27
52,23,28
51,23,28
52,23,27
51,23,27
51,23,28
52,23,27
52,24,27
51,23,28
51,23,28
51,24,27
50,24,27
51,24,27
52,24,28
50,23,28
50,24,28
51,24,28
51,24,28
51,24,28
51,24,28
51,24,28
50,24,28
50,24,28
51,24,27
51,24,28
51,24,28
50,24,28
51,24,28
51,24,28
51,23,27
51,24,27
51,24,27
52,24,28
50,24,28
50,24,27
52,24,28
52,23,28
50,23,27
51,23,27
52,23,28
51,23,28
51,23,28
51,24,27
51,23,27
51,23,28
51,23,28
51,23,27
51,23,28
52,23,28
52,23,28
51,23,28
51,23,27
51,23,27
51,23,27
51,23,28
51,23,28
52,23,28
51,23,28
52,23,28
51,23,28
50,23,27
52,23,28
52,23,28
51,24,27
51,23,27
51,23,28
52,23,28
51,23,27
51,23,28
51,23,28
51,23,28
52,23,28
51,23,28
51,23,27
51,23,27
52,23,27
52,23,28
51,23,27
51,22,27
52,23,28
51,23,28
51,23,28
52,22,28
51,22,28
51,22,28
51,22,28
52,23,28
51,23,27
51,23,28
51,23,28
52,23,28
51,22,27
52,22,28
52,22,28
51,23,28
51,23,27
52,23,28
52,23,27
51,22,27
51,22,28
52,22,28
52,23,27
51,22,28
52,22,28
52,22,28
51,23,27
51,23,28
52,23,27
51,23,27
51,23,27
51,23,28
52,23,28
52,23,27
52,23,27
50,23,27
50,24,27
52,24,28
52,24,28
51,23,28
51,23,28
50,23,28
52,23,28
53,24,28
50,23,27
50,24,26
51,24,26
51,24,27
52,25,27
52,24,27
51,23,27
52,24,27
52,24,28
51,24,27
50,25,27
51,24,28
52,24,27
51,24,27
50,24,27
51,24,27
52,23,28
52,24,27
51,23,28
51,24,28
51,24,28
51,24,28
51,24,28
51,24,28
50,24,27
51,24,27
51,23,27
51,23,28
51,24,27
51,23,27
50,24,28
51,24,27
52,24,28
51,24,27
51,23,27
51,23,27
51,24,27
51,24,26
51,24,27
53,23,27
52,23,27
51,24,27
51,24,27
51,24,27
52,23,27
52,23,27
52,23,28
51,23,27
51,23,27
51,23,27
52,22,28
50,24,27
50,23,27
51,23,27
52,23,28
51,23,27
51,23,27
52,22,28
52,22,28
51,23,27
51,23,27
52,22,27
51,23,27
51,23,27
53,23,27
52,23,27
51,22,26
52,22,27
52,23,27
52,24,26
52,23,26
51,23,26
52,23,26
52,23,26
52,23,27
52,23,27
51,23,27
52,22,27
53,22,27
52,23,27
51,23,26
52,23,26
52,23,26
52,23,26
53,22,27
52,22,27
52,22,26
52,22,26
52,22,26
53,23,26
53,23,25
52,23,25
52,22,25
53,21,25
54,22,25
53,22,25
53,22,25
53,22,25
52,22,25
53,22,24
54,22,24
54,22,24
53,21,24
53,21,25
53,22,25
53,22,26
52,23,25
52,22,24
53,21,24
53,21,24
54,21,25
54,21,25
53,22,25
52,22,24
53,21,25
54,21,24
53,21,25
53,21,25
54,21,25
54,21,25
53,21,24
53,21,24
54,20,24
55,19,25
55,20,25
55,21,24
53,21,24
53,21,25
54,21,25
53,21,24
54,20,24
54,19,25
55,20,25
55,21,24
53,21,25
53,21,25
54,21,25
54,21,25
53,21,24
54,20,25
54,20,25
54,20,25
53,20,25
53,21,25
54,21,25
54,21,24
53,20,25
53,20,25
54,21,25
54,21,25
53,20,25
54,20,25
54,21,25
53,21,24
54,21,25
54,20,25
54,21,25
53,21,25
54,21,25
54,21,25
54,21,25
53,21,25
54,21,25
54,21,25
53,21,25
53,21,25
54,21,25
54,21,25
53,20,25
53,20,25
55,21,25
53,21,25
53,21,25
54,21,25
54,20,24
53,20,25
53,20,25
53,21,25
53,21,25
54,21,25
54,20,25
54,21,24
53,21,25
53,21,24
54,21,24
54,20,24
54,20,25
54,20,25
54,21,25
53,21,25
53,20,25
55,20,25
54,20,24
53,21,24
54,21,24
54,20,24
54,19,24
55,20,24
53,21,24
54,21,24
55,21,24
54,20,24
54,21,24
55,20,24
54,20,24
54,21,24
54,21,24
53,21,24
54,21,24
54,20,24
54,20,24
54,20,24
54,21,24
54,21,24
54,20,24
54,20,24
54,20,24
55,20,24
55,21,24
54,22,24
54,22,24
54,21,25
54,20,24
54,20,24
54,20,24
53,20,24
54,21,24
54,21,24
54,20,24
54,20,24
53,20,24
54,21,24
54,20,24
54,21,24
54,20,24
54,20,24
54,20,24
54,20,24
54,20,24
55,20,24
54,20,24
54,20,24
55,20,24
55,20,24
54,20,24
54,20,24
55,20,24
54,20,24
54,20,24
55,20,24
54,20,24
54,20,24
55,20,24
54,20,24
54,20,24
54,20,24
54,20,24
54,20,24
54,20,24
54,20,24
55,20,24
55,20,24
54,20,24
53,20,24
54,20,24
54,20,24
54,20,24
54,20,24
54,20,24
55,19,24
55,19,24
55,19,24
53,20,24
53,21,24
55,20,24
55,20,24
54,19,23
54,19,24
55,19,24
55,20,24
55,20,24
54,20,24
54,20,24
55,20,24
55,20,24
54,20,24
54,20,24
55,20,24
55,20,24
54,20,24
54,20,24
54,20,24
54,20,24
54,20,24
54,20,24
54,20,24
54,20,24
54,20,24
54,20,24
54,20,24
54,20,24
54,20,24
54,20,24
54,20,25
54,20,24
53,20,24
54,20,24
54,20,24
54,20,24
54,20,24
54,20,24
54,20,24
54,20,25
53,20,24
54,20,24
54,20,24
54,20,24
54,20,25
53,21,25
54,21,25
54,20,24
54,20,24
54,20,24
54,20,24
54,20,24
54,20,24
54,21,24
54,20,24
54,20,24
54,19,24
55,19,23
55,19,23
55,20,24
55,20,24
54,20,24
55,20,24
55,21,23
55,20,24
54,20,24
54,21,24
54,20,24
54,20,24
54,20,24
55,19,23
55,19,24
54,20,24
54,21,24
53,22,24
54,21,25
54,20,24
53,20,24
53,20,24
54,20,24
54,20,24
54,20,24
54,20,24
54,20,24
55,20,24
55,20,24
55,20,24
54,20,24
55,20,24
55,20,24
55,20,24
54,20,23
55,20,24
55,20,23
55,20,23
55,20,24
54,20,23
54,20,23
55,20,24
54,20,23
55,20,23
55,20,24
54,20,23
54,19,24
56,19,24
55,19,23
55,20,23
55,20,23
55,21,23
55,21,23
54,20,24
54,20,24
54,19,24
54,19,24
55,19,24
55,20,23
55,20,23
55,19,23
55,20,23
54,21,23
54,20,23
54,20,24
54,20,24
55,19,23
55,19,23
55,20,23
55,20,23
55,20,23
55,20,23
55,20,24
55,20,24
55,20,23
55,19,23
55,20,23
54,20,23
55,20,23
55,20,23
55,20,23
54,20,23
55,20,24
53,21,23
54,21,23
55,19,24
55,19,24
55,20,23
55,20,23
55,20,23
55,20,23
55,20,23
55,20,24
55,20,24
54,20,23
55,20,24
54,20,23
54,19,23
55,18,23
55,19,22
55,20,22
56,20,22
56,20,23
55,20,23
55,21,23
55,20,23
55,20,23
55,20,23
54,20,23
55,20,23
55,20,23
55,20,23
54,20,23
54,20,23
54,20,23
55,20,23
55,20,23
55,20,24
55,20,24
54,20,23
55,20,23
55,20,23
55,20,23
55,20,23
55,20,23
55,20,24
54,20,24
55,20,23
55,19,23
54,20,23
54,20,23
55,20,23
55,19,23
55,19,22
55,20,23
55,20,23
55,21,23
55,21,23
55,20,23
55,19,23
55,19,23
55,20,23
55,19,23
55,20,23
55,20,23
54,20,24
54,20,23
55,20,23
55,20,24
54,20,24
54,20,24
55,19,24
55,20,24
55,20,24
55,20,23
55,20,24
55,20,24
55,20,23
55,20,24
54,20,24
54,20,24
54,20,24
54,20,25
54,20,25
54,20,25
54,20,26
53,20,25
53,20,25
53,20,25
54,18,26
54,19,26
54,21,26
53,21,26
